{ "height":10,
 "infinite":false,
 "layers":[
        {
         "data":[1, 1, 1, 1, 1, 1, 1, 1, 1, 1, 1, 1, 1, 1, 1, 14, 3, 15, 1, 14, 3, 15, 1, 14, 3, 3, 15, 1, 1, 2, 1, 2, 1, 2, 1, 2, 1, 2, 1, 1, 2, 1, 1, 4, 3, 13, 3, 13, 3, 13, 3, 13, 3, 3, 5, 1, 1, 4, 3, 13, 3, 5, 1, 2, 1, 2, 1, 1, 2, 1, 1, 2, 1, 2, 1, 2, 1, 2, 1, 2, 1, 1, 2, 1, 1, 16, 7, 6, 7, 6, 3, 13, 3, 6, 3, 3, 5, 1, 1, 1, 2, 1, 2, 1, 1, 2, 1, 1, 1, 1, 2, 1, 1, 1, 16, 3, 17, 1, 1, 16, 3, 3, 3, 3, 17, 1, 1, 1, 1, 1, 1, 1, 1, 1, 1, 1, 1, 1, 1, 1],
         "height":10,
         "name":"Layer1",
         "opacity":1,
         "type":"tilelayer",
         "visible":true,
         "width":14,
         "x":0,
         "y":0
        }, 
        {
         "data":[41, 41, 41, 41, 41, 41, 41, 41, 41, 41, 41, 41, 41, 41, 41, 0, 0, 0, 0, 0, 0, 0, 41, 0, 0, 0, 0, 41, 41, 0, 41, 0, 0, 0, 41, 0, 41, 0, 0, 41, 0, 41, 41, 0, 0, 0, 0, 0, 0, 0, 0, 0, 0, 0, 0, 41, 41, 0, 0, 0, 41, 0, 0, 0, 41, 41, 0, 0, 0, 41, 41, 0, 41, 0, 0, 0, 41, 0, 0, 0, 0, 41, 0, 41, 41, 41, 0, 0, 0, 0, 0, 0, 0, 0, 0, 0, 0, 41, 41, 0, 41, 41, 0, 0, 0, 0, 41, 41, 41, 0, 0, 41, 41, 0, 0, 0, 0, 0, 41, 0, 0, 0, 0, 41, 0, 41, 41, 41, 41, 41, 41, 41, 41, 41, 41, 41, 41, 41, 41, 41],
         "height":10,
         "name":"Layer2",
         "opacity":1,
         "type":"tilelayer",
         "visible":true,
         "width":14,
         "x":0,
         "y":0
        }, 
        {
         "data":[0, 0, 0, 0, 0, 0, 0, 0, 0, 0, 0, 0, 0, 0, 0, 0, 42, 0, 42, 0, 0, 44, 0, 0, 0, 0, 0, 0, 0, 0, 0, 43, 44, 0, 0, 0, 0, 42, 0, 0, 0, 0, 0, 0, 44, 0, 0, 0, 0, 43, 44, 0, 0, 44, 43, 0, 0, 0, 0, 0, 0, 43, 0, 0, 0, 0, 0, 42, 0, 0, 0, 42, 0, 0, 0, 0, 0, 0, 0, 43, 0, 0, 44, 0, 0, 0, 0, 44, 0, 0, 44, 0, 0, 0, 0, 0, 0, 0, 0, 0, 0, 0, 0, 0, 0, 0, 0, 0, 0, 44, 0, 0, 0, 0, 0, 0, 0, 43, 0, 0, 0, 42, 0, 0, 0, 0, 0, 0, 0, 0, 0, 0, 0, 0, 0, 0, 0, 0, 0, 0],
         "height":10,
         "name":"Layer3",
         "opacity":1,
         "type":"tilelayer",
         "visible":true,
         "width":14,
         "x":0,
         "y":0
        }, 
        {
         "data":[0, 0, 0, 0, 0, 0, 0, 0, 0, 0, 0, 0, 0, 0, 0, 0, 0, 0, 0, 0, 0, 0, 0, 0, 0, 0, 0, 0, 0, 0, 0, 0, 0, 0, 0, 0, 0, 0, 0, 0, 0, 0, 0, 0, 0, 0, 0, 0, 0, 0, 0, 0, 0, 0, 0, 0, 0, 0, 0, 0, 0, 0, 0, 0, 0, 0, 0, 0, 0, 0, 0, 0, 0, 0, 0, 0, 0, 0, 0, 0, 0, 0, 0, 0, 0, 0, 0, 0, 0, 0, 0, 0, 0, 0, 0, 0, 0, 0, 0, 0, 0, 0, 0, 0, 0, 0, 0, 0, 0, 0, 0, 0, 0, 0, 0, 0, 0, 0, 0, 0, 0, 0, 0, 0, 0, 0, 0, 0, 0, 0, 0, 0, 0, 0, 0, 0, 0, 0, 0, 0],
         "height":10,
         "name":"Layer4",
         "opacity":1,
         "type":"tilelayer",
         "visible":true,
         "width":14,
         "x":0,
         "y":0
        }],
 "nextobjectid":1,
 "orientation":"orthogonal",
 "renderorder":"right-down",
 "tiledversion":"1.1.5",
 "tileheight":64,
 "tilesets":[
        {
         "columns":10,
         "firstgid":1,
         "image":"tileset.png",
         "imageheight":256,
         "imagewidth":640,
         "margin":0,
         "name":"tileset",
         "spacing":0,
         "tilecount":40,
         "tileheight":64,
         "tilewidth":64,
         "transparentcolor":"#ff00ff"
        }, 
        {
         "columns":1,
         "firstgid":41,
         "image":"wall2.png",
         "imageheight":64,
         "imagewidth":64,
         "margin":0,
         "name":"wall2",
         "spacing":0,
         "tilecount":1,
         "tileheight":64,
         "tilewidth":64,
         "transparentcolor":"#ff00ff"
        }, 
        {
         "columns":1,
         "firstgid":42,
         "image":"b01.png",
         "imageheight":64,
         "imagewidth":64,
         "margin":0,
         "name":"b01",
         "spacing":0,
         "tilecount":1,
         "tileheight":64,
         "tilewidth":64,
         "transparentcolor":"#ff00ff"
        }, 
        {
         "columns":1,
         "firstgid":43,
         "image":"b03.png",
         "imageheight":64,
         "imagewidth":64,
         "margin":0,
         "name":"b03",
         "spacing":0,
         "tilecount":1,
         "tileheight":64,
         "tilewidth":64,
         "transparentcolor":"#ff00ff"
        }, 
        {
         "columns":1,
         "firstgid":44,
         "image":"b07.png",
         "imageheight":64,
         "imagewidth":64,
         "margin":0,
         "name":"b07",
         "spacing":0,
         "tilecount":1,
         "tileheight":64,
         "tilewidth":64,
         "transparentcolor":"#ff00ff"
        }, 
        {
         "columns":1,
         "firstgid":45,
         "image":"shoe.png",
         "imageheight":64,
         "imagewidth":64,
         "margin":0,
         "name":"shoe",
         "spacing":0,
         "tilecount":1,
         "tileheight":64,
         "tilewidth":64,
         "transparentcolor":"#ff00ff"
        }, 
        {
         "columns":1,
         "firstgid":46,
         "image":"shield.png",
         "imageheight":64,
         "imagewidth":64,
         "margin":0,
         "name":"shield",
         "spacing":0,
         "tilecount":1,
         "tileheight":64,
         "tilewidth":64,
         "transparentcolor":"#ff00ff"
        }, 
        {
         "columns":1,
         "firstgid":47,
         "image":"glove.png",
         "imageheight":64,
         "imagewidth":64,
         "margin":0,
         "name":"glove",
         "spacing":0,
         "tilecount":1,
         "tileheight":64,
         "tilewidth":64,
         "transparentcolor":"#ff00ff"
        }, 
        {
         "columns":1,
         "firstgid":48,
         "image":"ball.png",
         "imageheight":64,
         "imagewidth":64,
         "margin":0,
         "name":"ball",
         "spacing":0,
         "tilecount":1,
         "tileheight":64,
         "tilewidth":64,
         "transparentcolor":"#ff00ff"
        }, 
        {
         "columns":1,
         "firstgid":49,
         "image":"heart.png",
         "imageheight":64,
         "imagewidth":64,
         "margin":0,
         "name":"heart",
         "spacing":0,
         "tilecount":1,
         "tileheight":64,
         "tilewidth":64,
         "transparentcolor":"#ff00ff"
        }],
 "tilewidth":64,
 "type":"map",
 "version":1,
 "width":14
}